4	EQUIP_WEAPON	0	1.0	33.0	60.0
4	EQUIP_WEAPON	1	1.0	33.0	60.0
4	EQUIP_WEAPON	2	0.625	33.0	60.0
4	EQUIP_WEAPON	3	0.325	25.0	50.0
4	EQUIP_WEAPON	4	0.175	15.0	30.0
4	EQUIP_WEAPON	5	0.1	15.0	30.0
4	EQUIP_WEAPON	6	0.1	15.0	30.0
4	EQUIP_WEAPON	7	0.0625	10.0	30.0
4	EQUIP_WEAPON	8	0.04375	9.0	30.0
4	EQUIP_WEAPON	9	0.04375	9.0	30.0
4	EQUIP_WEAPON	10	0.0345	6.0	30.0
4	EQUIP_WEAPON	11	0.0345	6.0	30.0
4	EQUIP_ARMOR_BODY	0	1.0	33.0	60.0
4	EQUIP_ARMOR_BODY	1	1.0	33.0	60.0
4	EQUIP_ARMOR_BODY	2	0.625	33.0	60.0
4	EQUIP_ARMOR_BODY	3	0.325	25.0	50.0
4	EQUIP_ARMOR_BODY	4	0.175	15.0	30.0
4	EQUIP_ARMOR_BODY	5	0.1	15.0	30.0
4	EQUIP_ARMOR_BODY	6	0.1	15.0	30.0
4	EQUIP_ARMOR_BODY	7	0.0625	10.0	30.0
4	EQUIP_ARMOR_BODY	8	0.04375	9.0	30.0
4	EQUIP_ARMOR_BODY	9	0.04375	9.0	30.0
4	EQUIP_ARMOR_BODY	10	0.0345	6.0	30.0
4	EQUIP_ARMOR_BODY	11	0.0345	6.0	30.0
4	EQUIP_ARMOR_ARM	0	1.0	33.0	60.0
4	EQUIP_ARMOR_ARM	1	1.0	33.0	60.0
4	EQUIP_ARMOR_ARM	2	0.625	33.0	60.0
4	EQUIP_ARMOR_ARM	3	0.325	25.0	50.0
4	EQUIP_ARMOR_ARM	4	0.175	15.0	30.0
4	EQUIP_ARMOR_ARM	5	0.1	15.0	30.0
4	EQUIP_ARMOR_ARM	6	0.1	15.0	30.0
4	EQUIP_ARMOR_ARM	7	0.0625	10.0	30.0
4	EQUIP_ARMOR_ARM	8	0.04375	9.0	30.0
4	EQUIP_ARMOR_ARM	9	0.04375	9.0	30.0
4	EQUIP_ARMOR_ARM	10	0.0345	6.0	30.0
4	EQUIP_ARMOR_ARM	11	0.0345	6.0	30.0
4	EQUIP_ARMOR_LEG	0	1.0	33.0	60.0
4	EQUIP_ARMOR_LEG	1	1.0	33.0	60.0
4	EQUIP_ARMOR_LEG	2	0.625	33.0	60.0
4	EQUIP_ARMOR_LEG	3	0.325	25.0	50.0
4	EQUIP_ARMOR_LEG	4	0.175	15.0	30.0
4	EQUIP_ARMOR_LEG	5	0.1	15.0	30.0
4	EQUIP_ARMOR_LEG	6	0.1	15.0	30.0
4	EQUIP_ARMOR_LEG	7	0.0625	10.0	30.0
4	EQUIP_ARMOR_LEG	8	0.04375	9.0	30.0
4	EQUIP_ARMOR_LEG	9	0.04375	9.0	30.0
4	EQUIP_ARMOR_LEG	10	0.0345	6.0	30.0
4	EQUIP_ARMOR_LEG	11	0.0345	6.0	30.0
4	EQUIP_ACCESSORY	0	1.0	33.0	60.0
4	EQUIP_ACCESSORY	1	1.0	33.0	60.0
4	EQUIP_ACCESSORY	2	0.6	33.0	60.0
4	EQUIP_ACCESSORY	3	0.3	25.0	50.0
4	EQUIP_ACCESSORY	4	0.15	15.0	30.0
4	EQUIP_ACCESSORY	5	0.075	15.0	30.0
4	EQUIP_ACCESSORY	6	0.075	15.0	30.0
4	EQUIP_ACCESSORY	7	0.0375	10.0	30.0
4	EQUIP_ACCESSORY	8	0.01875	9.0	30.0
4	EQUIP_ACCESSORY	9	0.01875	9.0	30.0
4	EQUIP_ACCESSORY	10	0.00945	6.0	30.0
4	EQUIP_ACCESSORY	11	0.00945	6.0	30.0
5	EQUIP_WEAPON	0	1.0	33.0	60.0
5	EQUIP_WEAPON	1	1.0	33.0	60.0
5	EQUIP_WEAPON	2	0.6	33.0	60.0
5	EQUIP_WEAPON	3	0.3	25.0	50.0
5	EQUIP_WEAPON	4	0.15	15.0	30.0
5	EQUIP_WEAPON	5	0.075	15.0	30.0
5	EQUIP_WEAPON	6	0.075	15.0	30.0
5	EQUIP_WEAPON	7	0.0375	10.0	30.0
5	EQUIP_WEAPON	8	0.01875	9.0	30.0
5	EQUIP_WEAPON	9	0.01875	9.0	30.0
5	EQUIP_WEAPON	10	0.00945	6.0	30.0
5	EQUIP_WEAPON	11	0.00945	6.0	30.0
5	EQUIP_WEAPON	12	0.045	33.0	100.0
5	EQUIP_WEAPON	13	0.045	33.0	100.0
5	EQUIP_WEAPON	14	0.045	33.0	100.0
5	EQUIP_ARMOR_BODY	0	1.0	33.0	60.0
5	EQUIP_ARMOR_BODY	1	1.0	33.0	60.0
5	EQUIP_ARMOR_BODY	2	0.6	33.0	60.0
5	EQUIP_ARMOR_BODY	3	0.3	25.0	50.0
5	EQUIP_ARMOR_BODY	4	0.15	15.0	30.0
5	EQUIP_ARMOR_BODY	5	0.075	15.0	30.0
5	EQUIP_ARMOR_BODY	6	0.075	15.0	30.0
5	EQUIP_ARMOR_BODY	7	0.0375	10.0	30.0
5	EQUIP_ARMOR_BODY	8	0.01875	9.0	30.0
5	EQUIP_ARMOR_BODY	9	0.01875	9.0	30.0
5	EQUIP_ARMOR_BODY	10	0.00945	6.0	30.0
5	EQUIP_ARMOR_BODY	11	0.00945	6.0	30.0
5	EQUIP_ARMOR_BODY	12	0.045	33.0	100.0
5	EQUIP_ARMOR_BODY	13	0.045	33.0	100.0
5	EQUIP_ARMOR_BODY	14	0.045	33.0	100.0
5	EQUIP_ARMOR_ARM	0	1.0	33.0	60.0
5	EQUIP_ARMOR_ARM	1	1.0	33.0	60.0
5	EQUIP_ARMOR_ARM	2	0.6	33.0	60.0
5	EQUIP_ARMOR_ARM	3	0.3	25.0	50.0
5	EQUIP_ARMOR_ARM	4	0.15	15.0	30.0
5	EQUIP_ARMOR_ARM	5	0.075	15.0	30.0
5	EQUIP_ARMOR_ARM	6	0.075	15.0	30.0
5	EQUIP_ARMOR_ARM	7	0.0375	10.0	30.0
5	EQUIP_ARMOR_ARM	8	0.01875	9.0	30.0
5	EQUIP_ARMOR_ARM	9	0.01875	9.0	30.0
5	EQUIP_ARMOR_ARM	10	0.00945	6.0	30.0
5	EQUIP_ARMOR_ARM	11	0.00945	6.0	30.0
5	EQUIP_ARMOR_ARM	12	0.045	33.0	100.0
5	EQUIP_ARMOR_ARM	13	0.045	33.0	100.0
5	EQUIP_ARMOR_ARM	14	0.045	33.0	100.0
5	EQUIP_ARMOR_LEG	0	1.0	33.0	60.0
5	EQUIP_ARMOR_LEG	1	1.0	33.0	60.0
5	EQUIP_ARMOR_LEG	2	0.6	33.0	60.0
5	EQUIP_ARMOR_LEG	3	0.3	25.0	50.0
5	EQUIP_ARMOR_LEG	4	0.15	15.0	30.0
5	EQUIP_ARMOR_LEG	5	0.075	15.0	30.0
5	EQUIP_ARMOR_LEG	6	0.075	15.0	30.0
5	EQUIP_ARMOR_LEG	7	0.0375	10.0	30.0
5	EQUIP_ARMOR_LEG	8	0.01875	9.0	30.0
5	EQUIP_ARMOR_LEG	9	0.01875	9.0	30.0
5	EQUIP_ARMOR_LEG	10	0.00945	6.0	30.0
5	EQUIP_ARMOR_LEG	11	0.00945	6.0	30.0
5	EQUIP_ARMOR_LEG	12	0.045	33.0	100.0
5	EQUIP_ARMOR_LEG	13	0.045	33.0	100.0
5	EQUIP_ARMOR_LEG	14	0.045	33.0	100.0
6	EQUIP_WEAPON	0	1.0	33.0	60.0
6	EQUIP_WEAPON	1	1.0	33.0	60.0
6	EQUIP_WEAPON	2	0.6	33.0	60.0
6	EQUIP_WEAPON	3	0.3	25.0	50.0
6	EQUIP_WEAPON	4	0.15	15.0	30.0
6	EQUIP_WEAPON	5	0.1125	15.0	30.0
6	EQUIP_WEAPON	6	0.1125	15.0	30.0
6	EQUIP_WEAPON	7	0.0825	10.0	30.0
6	EQUIP_WEAPON	8	0.0625	9.0	30.0
6	EQUIP_WEAPON	9	0.0625	9.0	30.0
6	EQUIP_WEAPON	10	0.0625	6.0	30.0
6	EQUIP_WEAPON	11	0.0625	6.0	30.0
6	EQUIP_WEAPON	12	0.045	33.0	100.0
6	EQUIP_WEAPON	13	0.045	33.0	100.0
6	EQUIP_WEAPON	14	0.045	33.0	100.0
6	EQUIP_ARMOR_BODY	0	1.0	33.0	60.0
6	EQUIP_ARMOR_BODY	1	1.0	33.0	60.0
6	EQUIP_ARMOR_BODY	2	0.6	33.0	60.0
6	EQUIP_ARMOR_BODY	3	0.3	25.0	50.0
6	EQUIP_ARMOR_BODY	4	0.15	15.0	30.0
6	EQUIP_ARMOR_BODY	5	0.1125	15.0	30.0
6	EQUIP_ARMOR_BODY	6	0.1125	15.0	30.0
6	EQUIP_ARMOR_BODY	7	0.0825	10.0	30.0
6	EQUIP_ARMOR_BODY	8	0.0625	9.0	30.0
6	EQUIP_ARMOR_BODY	9	0.0625	9.0	30.0
6	EQUIP_ARMOR_BODY	10	0.0625	6.0	30.0
6	EQUIP_ARMOR_BODY	11	0.0625	6.0	30.0
6	EQUIP_ARMOR_BODY	12	0.045	33.0	100.0
6	EQUIP_ARMOR_BODY	13	0.045	33.0	100.0
6	EQUIP_ARMOR_BODY	14	0.045	33.0	100.0
6	EQUIP_ARMOR_ARM	0	1.0	33.0	60.0
6	EQUIP_ARMOR_ARM	1	1.0	33.0	60.0
6	EQUIP_ARMOR_ARM	2	0.6	33.0	60.0
6	EQUIP_ARMOR_ARM	3	0.3	25.0	50.0
6	EQUIP_ARMOR_ARM	4	0.15	15.0	30.0
6	EQUIP_ARMOR_ARM	5	0.1125	15.0	30.0
6	EQUIP_ARMOR_ARM	6	0.1125	15.0	30.0
6	EQUIP_ARMOR_ARM	7	0.0825	10.0	30.0
6	EQUIP_ARMOR_ARM	8	0.0625	9.0	30.0
6	EQUIP_ARMOR_ARM	9	0.0625	9.0	30.0
6	EQUIP_ARMOR_ARM	10	0.0625	6.0	30.0
6	EQUIP_ARMOR_ARM	11	0.0625	6.0	30.0
6	EQUIP_ARMOR_ARM	12	0.045	33.0	100.0
6	EQUIP_ARMOR_ARM	13	0.045	33.0	100.0
6	EQUIP_ARMOR_ARM	14	0.045	33.0	100.0
6	EQUIP_ARMOR_LEG	0	1.0	33.0	60.0
6	EQUIP_ARMOR_LEG	1	1.0	33.0	60.0
6	EQUIP_ARMOR_LEG	2	0.6	33.0	60.0
6	EQUIP_ARMOR_LEG	3	0.3	25.0	50.0
6	EQUIP_ARMOR_LEG	4	0.15	15.0	30.0
6	EQUIP_ARMOR_LEG	5	0.1125	15.0	30.0
6	EQUIP_ARMOR_LEG	6	0.1125	15.0	30.0
6	EQUIP_ARMOR_LEG	7	0.0825	10.0	30.0
6	EQUIP_ARMOR_LEG	8	0.0625	9.0	30.0
6	EQUIP_ARMOR_LEG	9	0.0625	9.0	30.0
6	EQUIP_ARMOR_LEG	10	0.0625	6.0	30.0
6	EQUIP_ARMOR_LEG	11	0.0625	6.0	30.0
6	EQUIP_ARMOR_LEG	12	0.045	33.0	100.0
6	EQUIP_ARMOR_LEG	13	0.045	33.0	100.0
6	EQUIP_ARMOR_LEG	14	0.045	33.0	100.0
7	EQUIP_WEAPON	0	1.0	33.0	60.0
7	EQUIP_WEAPON	1	1.0	33.0	60.0
7	EQUIP_WEAPON	2	0.6	33.0	60.0
7	EQUIP_WEAPON	3	0.3	25.0	50.0
7	EQUIP_WEAPON	4	0.15	15.0	30.0
7	EQUIP_WEAPON	5	0.1125	15.0	30.0
7	EQUIP_WEAPON	6	0.1125	15.0	30.0
7	EQUIP_WEAPON	7	0.0825	10.0	30.0
7	EQUIP_WEAPON	8	0.0625	9.0	30.0
7	EQUIP_WEAPON	9	0.0625	9.0	30.0
7	EQUIP_WEAPON	10	0.0625	6.0	30.0
7	EQUIP_WEAPON	11	0.0625	6.0	30.0
7	EQUIP_WEAPON	12	0.045	33.0	100.0
7	EQUIP_WEAPON	13	0.045	33.0	100.0
7	EQUIP_WEAPON	14	0.045	33.0	100.0
7	EQUIP_ARMOR_BODY	0	1.0	33.0	60.0
7	EQUIP_ARMOR_BODY	1	1.0	33.0	60.0
7	EQUIP_ARMOR_BODY	2	0.6	33.0	60.0
7	EQUIP_ARMOR_BODY	3	0.3	25.0	50.0
7	EQUIP_ARMOR_BODY	4	0.15	15.0	30.0
7	EQUIP_ARMOR_BODY	5	0.1125	15.0	30.0
7	EQUIP_ARMOR_BODY	6	0.1125	15.0	30.0
7	EQUIP_ARMOR_BODY	7	0.0825	10.0	30.0
7	EQUIP_ARMOR_BODY	8	0.0625	9.0	30.0
7	EQUIP_ARMOR_BODY	9	0.0625	9.0	30.0
7	EQUIP_ARMOR_BODY	10	0.0625	6.0	30.0
7	EQUIP_ARMOR_BODY	11	0.0625	6.0	30.0
7	EQUIP_ARMOR_BODY	12	0.045	33.0	100.0
7	EQUIP_ARMOR_BODY	13	0.045	33.0	100.0
7	EQUIP_ARMOR_BODY	14	0.045	33.0	100.0
7	EQUIP_ARMOR_ARM	0	1.0	33.0	60.0
7	EQUIP_ARMOR_ARM	1	1.0	33.0	60.0
7	EQUIP_ARMOR_ARM	2	0.6	33.0	60.0
7	EQUIP_ARMOR_ARM	3	0.3	25.0	50.0
7	EQUIP_ARMOR_ARM	4	0.15	15.0	30.0
7	EQUIP_ARMOR_ARM	5	0.1125	15.0	30.0
7	EQUIP_ARMOR_ARM	6	0.1125	15.0	30.0
7	EQUIP_ARMOR_ARM	7	0.0825	10.0	30.0
7	EQUIP_ARMOR_ARM	8	0.0625	9.0	30.0
7	EQUIP_ARMOR_ARM	9	0.0625	9.0	30.0
7	EQUIP_ARMOR_ARM	10	0.0625	6.0	30.0
7	EQUIP_ARMOR_ARM	11	0.0625	6.0	30.0
7	EQUIP_ARMOR_ARM	12	0.045	33.0	100.0
7	EQUIP_ARMOR_ARM	13	0.045	33.0	100.0
7	EQUIP_ARMOR_ARM	14	0.045	33.0	100.0
7	EQUIP_ARMOR_LEG	0	1.0	33.0	60.0
7	EQUIP_ARMOR_LEG	1	1.0	33.0	60.0
7	EQUIP_ARMOR_LEG	2	0.6	33.0	60.0
7	EQUIP_ARMOR_LEG	3	0.3	25.0	50.0
7	EQUIP_ARMOR_LEG	4	0.15	15.0	30.0
7	EQUIP_ARMOR_LEG	5	0.1125	15.0	30.0
7	EQUIP_ARMOR_LEG	6	0.1125	15.0	30.0
7	EQUIP_ARMOR_LEG	7	0.0825	10.0	30.0
7	EQUIP_ARMOR_LEG	8	0.0625	9.0	30.0
7	EQUIP_ARMOR_LEG	9	0.0625	9.0	30.0
7	EQUIP_ARMOR_LEG	10	0.0625	6.0	30.0
7	EQUIP_ARMOR_LEG	11	0.0625	6.0	30.0
7	EQUIP_ARMOR_LEG	12	0.045	33.0	100.0
7	EQUIP_ARMOR_LEG	13	0.045	33.0	100.0
7	EQUIP_ARMOR_LEG	14	0.045	33.0	100.0
8	EQUIP_WEAPON	0	1.0	33.0	60.0
8	EQUIP_WEAPON	1	1.0	33.0	60.0
8	EQUIP_WEAPON	2	0.6	33.0	60.0
8	EQUIP_WEAPON	3	0.3	25.0	50.0
8	EQUIP_WEAPON	4	0.15	15.0	30.0
8	EQUIP_WEAPON	5	0.1125	15.0	30.0
8	EQUIP_WEAPON	6	0.1125	15.0	30.0
8	EQUIP_WEAPON	7	0.0825	10.0	30.0
8	EQUIP_WEAPON	8	0.0625	9.0	30.0
8	EQUIP_WEAPON	9	0.0625	9.0	30.0
8	EQUIP_WEAPON	10	0.0625	6.0	30.0
8	EQUIP_WEAPON	11	0.0625	6.0	30.0
8	EQUIP_WEAPON	12	0.045	33.0	100.0
8	EQUIP_WEAPON	13	0.045	33.0	100.0
8	EQUIP_WEAPON	14	0.045	33.0	100.0
8	EQUIP_ARMOR_BODY	0	1.0	33.0	60.0
8	EQUIP_ARMOR_BODY	1	1.0	33.0	60.0
8	EQUIP_ARMOR_BODY	2	0.6	33.0	60.0
8	EQUIP_ARMOR_BODY	3	0.3	25.0	50.0
8	EQUIP_ARMOR_BODY	4	0.15	15.0	30.0
8	EQUIP_ARMOR_BODY	5	0.1125	15.0	30.0
8	EQUIP_ARMOR_BODY	6	0.1125	15.0	30.0
8	EQUIP_ARMOR_BODY	7	0.0825	10.0	30.0
8	EQUIP_ARMOR_BODY	8	0.0625	9.0	30.0
8	EQUIP_ARMOR_BODY	9	0.0625	9.0	30.0
8	EQUIP_ARMOR_BODY	10	0.0625	6.0	30.0
8	EQUIP_ARMOR_BODY	11	0.0625	6.0	30.0
8	EQUIP_ARMOR_BODY	12	0.045	33.0	100.0
8	EQUIP_ARMOR_BODY	13	0.045	33.0	100.0
8	EQUIP_ARMOR_BODY	14	0.045	33.0	100.0
8	EQUIP_ARMOR_ARM	0	1.0	33.0	60.0
8	EQUIP_ARMOR_ARM	1	1.0	33.0	60.0
8	EQUIP_ARMOR_ARM	2	0.6	33.0	60.0
8	EQUIP_ARMOR_ARM	3	0.3	25.0	50.0
8	EQUIP_ARMOR_ARM	4	0.15	15.0	30.0
8	EQUIP_ARMOR_ARM	5	0.1125	15.0	30.0
8	EQUIP_ARMOR_ARM	6	0.1125	15.0	30.0
8	EQUIP_ARMOR_ARM	7	0.0825	10.0	30.0
8	EQUIP_ARMOR_ARM	8	0.0625	9.0	30.0
8	EQUIP_ARMOR_ARM	9	0.0625	9.0	30.0
8	EQUIP_ARMOR_ARM	10	0.0625	6.0	30.0
8	EQUIP_ARMOR_ARM	11	0.0625	6.0	30.0
8	EQUIP_ARMOR_ARM	12	0.045	33.0	100.0
8	EQUIP_ARMOR_ARM	13	0.045	33.0	100.0
8	EQUIP_ARMOR_ARM	14	0.045	33.0	100.0
8	EQUIP_ARMOR_LEG	0	1.0	33.0	60.0
8	EQUIP_ARMOR_LEG	1	1.0	33.0	60.0
8	EQUIP_ARMOR_LEG	2	0.6	33.0	60.0
8	EQUIP_ARMOR_LEG	3	0.3	25.0	50.0
8	EQUIP_ARMOR_LEG	4	0.15	15.0	30.0
8	EQUIP_ARMOR_LEG	5	0.1125	15.0	30.0
8	EQUIP_ARMOR_LEG	6	0.1125	15.0	30.0
8	EQUIP_ARMOR_LEG	7	0.0825	10.0	30.0
8	EQUIP_ARMOR_LEG	8	0.0625	9.0	30.0
8	EQUIP_ARMOR_LEG	9	0.0625	9.0	30.0
8	EQUIP_ARMOR_LEG	10	0.0625	6.0	30.0
8	EQUIP_ARMOR_LEG	11	0.0625	6.0	30.0
8	EQUIP_ARMOR_LEG	12	0.045	33.0	100.0
8	EQUIP_ARMOR_LEG	13	0.045	33.0	100.0
8	EQUIP_ARMOR_LEG	14	0.045	33.0	100.0
9	EQUIP_WEAPON	0	1.0	33.0	60.0
9	EQUIP_WEAPON	1	1.0	33.0	60.0
9	EQUIP_WEAPON	2	0.6	33.0	60.0
9	EQUIP_WEAPON	3	0.3	25.0	50.0
9	EQUIP_WEAPON	4	0.15	15.0	30.0
9	EQUIP_WEAPON	5	0.1125	15.0	30.0
9	EQUIP_WEAPON	6	0.1125	15.0	30.0
9	EQUIP_WEAPON	7	0.0825	10.0	30.0
9	EQUIP_WEAPON	8	0.0625	9.0	30.0
9	EQUIP_WEAPON	9	0.0625	9.0	30.0
9	EQUIP_WEAPON	10	0.0625	6.0	30.0
9	EQUIP_WEAPON	11	0.0625	6.0	30.0
9	EQUIP_WEAPON	12	0.045	33.0	100.0
9	EQUIP_WEAPON	13	0.045	33.0	100.0
9	EQUIP_WEAPON	14	0.045	33.0	100.0
9	EQUIP_ARMOR_BODY	0	1.0	33.0	60.0
9	EQUIP_ARMOR_BODY	1	1.0	33.0	60.0
9	EQUIP_ARMOR_BODY	2	0.6	33.0	60.0
9	EQUIP_ARMOR_BODY	3	0.3	25.0	50.0
9	EQUIP_ARMOR_BODY	4	0.15	15.0	30.0
9	EQUIP_ARMOR_BODY	5	0.1125	15.0	30.0
9	EQUIP_ARMOR_BODY	6	0.1125	15.0	30.0
9	EQUIP_ARMOR_BODY	7	0.0825	10.0	30.0
9	EQUIP_ARMOR_BODY	8	0.0625	9.0	30.0
9	EQUIP_ARMOR_BODY	9	0.0625	9.0	30.0
9	EQUIP_ARMOR_BODY	10	0.0625	6.0	30.0
9	EQUIP_ARMOR_BODY	11	0.0625	6.0	30.0
9	EQUIP_ARMOR_BODY	12	0.045	33.0	100.0
9	EQUIP_ARMOR_BODY	13	0.045	33.0	100.0
9	EQUIP_ARMOR_BODY	14	0.045	33.0	100.0
9	EQUIP_ARMOR_ARM	0	1.0	33.0	60.0
9	EQUIP_ARMOR_ARM	1	1.0	33.0	60.0
9	EQUIP_ARMOR_ARM	2	0.6	33.0	60.0
9	EQUIP_ARMOR_ARM	3	0.3	25.0	50.0
9	EQUIP_ARMOR_ARM	4	0.15	15.0	30.0
9	EQUIP_ARMOR_ARM	5	0.1125	15.0	30.0
9	EQUIP_ARMOR_ARM	6	0.1125	15.0	30.0
9	EQUIP_ARMOR_ARM	7	0.0825	10.0	30.0
9	EQUIP_ARMOR_ARM	8	0.0625	9.0	30.0
9	EQUIP_ARMOR_ARM	9	0.0625	9.0	30.0
9	EQUIP_ARMOR_ARM	10	0.0625	6.0	30.0
9	EQUIP_ARMOR_ARM	11	0.0625	6.0	30.0
9	EQUIP_ARMOR_ARM	12	0.045	33.0	100.0
9	EQUIP_ARMOR_ARM	13	0.045	33.0	100.0
9	EQUIP_ARMOR_ARM	14	0.045	33.0	100.0
9	EQUIP_ARMOR_LEG	0	1.0	33.0	60.0
9	EQUIP_ARMOR_LEG	1	1.0	33.0	60.0
9	EQUIP_ARMOR_LEG	2	0.6	33.0	60.0
9	EQUIP_ARMOR_LEG	3	0.3	25.0	50.0
9	EQUIP_ARMOR_LEG	4	0.15	15.0	30.0
9	EQUIP_ARMOR_LEG	5	0.1125	15.0	30.0
9	EQUIP_ARMOR_LEG	6	0.1125	15.0	30.0
9	EQUIP_ARMOR_LEG	7	0.0825	10.0	30.0
9	EQUIP_ARMOR_LEG	8	0.06275	9.0	30.0
9	EQUIP_ARMOR_LEG	9	0.0625	9.0	30.0
9	EQUIP_ARMOR_LEG	10	0.0625	6.0	30.0
9	EQUIP_ARMOR_LEG	11	0.0625	6.0	30.0
9	EQUIP_ARMOR_LEG	12	0.045	33.0	100.0
9	EQUIP_ARMOR_LEG	13	0.045	33.0	100.0
9	EQUIP_ARMOR_LEG	14	0.045	33.0	100.0
10	EQUIP_WEAPON	0	1.0	33.0	60.0
10	EQUIP_WEAPON	1	1.0	33.0	60.0
10	EQUIP_WEAPON	2	0.6	33.0	60.0
10	EQUIP_WEAPON	3	0.3	25.0	50.0
10	EQUIP_WEAPON	4	0.15	15.0	30.0
10	EQUIP_WEAPON	5	0.1125	15.0	30.0
10	EQUIP_WEAPON	6	0.1125	15.0	30.0
10	EQUIP_WEAPON	7	0.0825	10.0	30.0
10	EQUIP_WEAPON	8	0.0625	9.0	30.0
10	EQUIP_WEAPON	9	0.0625	9.0	30.0
10	EQUIP_WEAPON	10	0.0625	6.0	30.0
10	EQUIP_WEAPON	11	0.0625	6.0	30.0
10	EQUIP_WEAPON	12	0.045	33.0	100.0
10	EQUIP_WEAPON	13	0.045	33.0	100.0
10	EQUIP_WEAPON	14	0.045	33.0	100.0
10	EQUIP_ARMOR_BODY	0	1.0	33.0	60.0
10	EQUIP_ARMOR_BODY	1	1.0	33.0	60.0
10	EQUIP_ARMOR_BODY	2	0.6	33.0	60.0
10	EQUIP_ARMOR_BODY	3	0.3	25.0	50.0
10	EQUIP_ARMOR_BODY	4	0.15	15.0	30.0
10	EQUIP_ARMOR_BODY	5	0.1125	15.0	30.0
10	EQUIP_ARMOR_BODY	6	0.1125	15.0	30.0
10	EQUIP_ARMOR_BODY	7	0.0825	10.0	30.0
10	EQUIP_ARMOR_BODY	8	0.0625	9.0	30.0
10	EQUIP_ARMOR_BODY	9	0.0625	9.0	30.0
10	EQUIP_ARMOR_BODY	10	0.0625	6.0	30.0
10	EQUIP_ARMOR_BODY	11	0.0625	6.0	30.0
10	EQUIP_ARMOR_BODY	12	0.045	33.0	100.0
10	EQUIP_ARMOR_BODY	13	0.045	33.0	100.0
10	EQUIP_ARMOR_BODY	14	0.045	33.0	100.0
10	EQUIP_ARMOR_ARM	0	1.0	33.0	60.0
10	EQUIP_ARMOR_ARM	1	1.0	33.0	60.0
10	EQUIP_ARMOR_ARM	2	0.6	33.0	60.0
10	EQUIP_ARMOR_ARM	3	0.3	25.0	50.0
10	EQUIP_ARMOR_ARM	4	0.15	15.0	30.0
10	EQUIP_ARMOR_ARM	5	0.1125	15.0	30.0
10	EQUIP_ARMOR_ARM	6	0.1125	15.0	30.0
10	EQUIP_ARMOR_ARM	7	0.0825	10.0	30.0
10	EQUIP_ARMOR_ARM	8	0.0625	9.0	30.0
10	EQUIP_ARMOR_ARM	9	0.0625	9.0	30.0
10	EQUIP_ARMOR_ARM	10	0.0625	6.0	30.0
10	EQUIP_ARMOR_ARM	11	0.0625	6.0	30.0
10	EQUIP_ARMOR_ARM	12	0.045	33.0	100.0
10	EQUIP_ARMOR_ARM	13	0.045	33.0	100.0
10	EQUIP_ARMOR_ARM	14	0.045	33.0	100.0
10	EQUIP_ARMOR_LEG	0	1.0	33.0	60.0
10	EQUIP_ARMOR_LEG	1	1.0	33.0	60.0
10	EQUIP_ARMOR_LEG	2	0.6	33.0	60.0
10	EQUIP_ARMOR_LEG	3	0.3	25.0	50.0
10	EQUIP_ARMOR_LEG	4	0.15	15.0	30.0
10	EQUIP_ARMOR_LEG	5	0.1125	15.0	30.0
10	EQUIP_ARMOR_LEG	6	0.1125	15.0	30.0
10	EQUIP_ARMOR_LEG	7	0.0825	10.0	30.0
10	EQUIP_ARMOR_LEG	8	0.06275	9.0	30.0
10	EQUIP_ARMOR_LEG	9	0.0625	9.0	30.0
10	EQUIP_ARMOR_LEG	10	0.0625	6.0	30.0
10	EQUIP_ARMOR_LEG	11	0.0625	6.0	30.0
10	EQUIP_ARMOR_LEG	12	0.045	33.0	100.0
10	EQUIP_ARMOR_LEG	13	0.045	33.0	100.0
10	EQUIP_ARMOR_LEG	14	0.045	33.0	100.0
11	EQUIP_WEAPON	0	1.0	33.0	60.0
11	EQUIP_WEAPON	1	1.0	33.0	60.0
11	EQUIP_WEAPON	2	0.6	33.0	60.0
11	EQUIP_WEAPON	3	0.3	25.0	50.0
11	EQUIP_WEAPON	4	0.15	15.0	30.0
11	EQUIP_WEAPON	5	0.075	15.0	30.0
11	EQUIP_WEAPON	6	0.075	15.0	30.0
11	EQUIP_WEAPON	7	0.0375	10.0	30.0
11	EQUIP_WEAPON	8	0.01875	9.0	30.0
11	EQUIP_WEAPON	9	0.01875	9.0	30.0
11	EQUIP_WEAPON	10	0.00945	6.0	30.0
11	EQUIP_WEAPON	11	0.00945	6.0	30.0
11	EQUIP_WEAPON	12	0.045	33.0	100.0
11	EQUIP_WEAPON	13	0.045	33.0	100.0
11	EQUIP_WEAPON	14	0.045	33.0	100.0
11	EQUIP_ARMOR_BODY	0	1.0	33.0	60.0
11	EQUIP_ARMOR_BODY	1	1.0	33.0	60.0
11	EQUIP_ARMOR_BODY	2	0.6	33.0	60.0
11	EQUIP_ARMOR_BODY	3	0.3	25.0	50.0
11	EQUIP_ARMOR_BODY	4	0.15	15.0	30.0
11	EQUIP_ARMOR_BODY	5	0.075	15.0	30.0
11	EQUIP_ARMOR_BODY	6	0.075	15.0	30.0
11	EQUIP_ARMOR_BODY	7	0.0375	10.0	30.0
11	EQUIP_ARMOR_BODY	8	0.01875	9.0	30.0
11	EQUIP_ARMOR_BODY	9	0.01875	9.0	30.0
11	EQUIP_ARMOR_BODY	10	0.00945	6.0	30.0
11	EQUIP_ARMOR_BODY	11	0.00945	6.0	30.0
11	EQUIP_ARMOR_BODY	12	0.045	33.0	100.0
11	EQUIP_ARMOR_BODY	13	0.045	33.0	100.0
11	EQUIP_ARMOR_BODY	14	0.045	33.0	100.0
11	EQUIP_ARMOR_ARM	0	1.0	33.0	60.0
11	EQUIP_ARMOR_ARM	1	1.0	33.0	60.0
11	EQUIP_ARMOR_ARM	2	0.6	33.0	60.0
11	EQUIP_ARMOR_ARM	3	0.3	25.0	50.0
11	EQUIP_ARMOR_ARM	4	0.15	15.0	30.0
11	EQUIP_ARMOR_ARM	5	0.075	15.0	30.0
11	EQUIP_ARMOR_ARM	6	0.075	15.0	30.0
11	EQUIP_ARMOR_ARM	7	0.0375	10.0	30.0
11	EQUIP_ARMOR_ARM	8	0.01875	9.0	30.0
11	EQUIP_ARMOR_ARM	9	0.01875	9.0	30.0
11	EQUIP_ARMOR_ARM	10	0.00945	6.0	30.0
11	EQUIP_ARMOR_ARM	11	0.00945	6.0	30.0
11	EQUIP_ARMOR_ARM	12	0.045	33.0	100.0
11	EQUIP_ARMOR_ARM	13	0.045	33.0	100.0
11	EQUIP_ARMOR_ARM	14	0.045	33.0	100.0
11	EQUIP_ARMOR_LEG	0	1.0	33.0	60.0
11	EQUIP_ARMOR_LEG	1	1.0	33.0	60.0
11	EQUIP_ARMOR_LEG	2	0.6	33.0	60.0
11	EQUIP_ARMOR_LEG	3	0.3	25.0	50.0
11	EQUIP_ARMOR_LEG	4	0.15	15.0	30.0
11	EQUIP_ARMOR_LEG	5	0.075	15.0	30.0
11	EQUIP_ARMOR_LEG	6	0.075	15.0	30.0
11	EQUIP_ARMOR_LEG	7	0.0375	10.0	30.0
11	EQUIP_ARMOR_LEG	8	0.01875	9.0	30.0
11	EQUIP_ARMOR_LEG	9	0.01875	9.0	30.0
11	EQUIP_ARMOR_LEG	10	0.00945	6.0	30.0
11	EQUIP_ARMOR_LEG	11	0.00945	6.0	30.0
11	EQUIP_ARMOR_LEG	12	0.045	33.0	100.0
11	EQUIP_ARMOR_LEG	13	0.045	33.0	100.0
11	EQUIP_ARMOR_LEG	14	0.045	33.0	100.0
12	EQUIP_WEAPON	0	1.0	33.0	60.0
12	EQUIP_WEAPON	1	1.0	33.0	60.0
12	EQUIP_WEAPON	2	0.6	33.0	60.0
12	EQUIP_WEAPON	3	0.3	25.0	50.0
12	EQUIP_WEAPON	4	0.15	15.0	30.0
12	EQUIP_WEAPON	5	0.075	15.0	30.0
12	EQUIP_WEAPON	6	0.075	15.0	30.0
12	EQUIP_WEAPON	7	0.0375	10.0	30.0
12	EQUIP_WEAPON	8	0.01875	9.0	30.0
12	EQUIP_WEAPON	9	0.01875	9.0	30.0
12	EQUIP_WEAPON	10	0.00945	6.0	30.0
12	EQUIP_WEAPON	11	0.00945	6.0	30.0
12	EQUIP_WEAPON	12	0.045	33.0	100.0
12	EQUIP_WEAPON	13	0.045	33.0	100.0
12	EQUIP_WEAPON	14	0.045	33.0	100.0
12	EQUIP_ARMOR_BODY	0	1.0	33.0	60.0
12	EQUIP_ARMOR_BODY	1	1.0	33.0	60.0
12	EQUIP_ARMOR_BODY	2	0.6	33.0	60.0
12	EQUIP_ARMOR_BODY	3	0.3	25.0	50.0
12	EQUIP_ARMOR_BODY	4	0.15	15.0	30.0
12	EQUIP_ARMOR_BODY	5	0.075	15.0	30.0
12	EQUIP_ARMOR_BODY	6	0.075	15.0	30.0
12	EQUIP_ARMOR_BODY	7	0.0375	10.0	30.0
12	EQUIP_ARMOR_BODY	8	0.01875	9.0	30.0
12	EQUIP_ARMOR_BODY	9	0.01875	9.0	30.0
12	EQUIP_ARMOR_BODY	10	0.00945	6.0	30.0
12	EQUIP_ARMOR_BODY	11	0.00945	6.0	30.0
12	EQUIP_ARMOR_BODY	12	0.045	33.0	100.0
12	EQUIP_ARMOR_BODY	13	0.045	33.0	100.0
12	EQUIP_ARMOR_BODY	14	0.045	33.0	100.0
12	EQUIP_ARMOR_ARM	0	1.0	33.0	60.0
12	EQUIP_ARMOR_ARM	1	1.0	33.0	60.0
12	EQUIP_ARMOR_ARM	2	0.6	33.0	60.0
12	EQUIP_ARMOR_ARM	3	0.3	25.0	50.0
12	EQUIP_ARMOR_ARM	4	0.15	15.0	30.0
12	EQUIP_ARMOR_ARM	5	0.075	15.0	30.0
12	EQUIP_ARMOR_ARM	6	0.075	15.0	30.0
12	EQUIP_ARMOR_ARM	7	0.0375	10.0	30.0
12	EQUIP_ARMOR_ARM	8	0.01875	9.0	30.0
12	EQUIP_ARMOR_ARM	9	0.01875	9.0	30.0
12	EQUIP_ARMOR_ARM	10	0.00945	6.0	30.0
12	EQUIP_ARMOR_ARM	11	0.00945	6.0	30.0
12	EQUIP_ARMOR_ARM	12	0.045	33.0	100.0
12	EQUIP_ARMOR_ARM	13	0.045	33.0	100.0
12	EQUIP_ARMOR_ARM	14	0.045	33.0	100.0
12	EQUIP_ARMOR_LEG	0	1.0	33.0	60.0
12	EQUIP_ARMOR_LEG	1	1.0	33.0	60.0
12	EQUIP_ARMOR_LEG	2	0.6	33.0	60.0
12	EQUIP_ARMOR_LEG	3	0.3	25.0	50.0
12	EQUIP_ARMOR_LEG	4	0.15	15.0	30.0
12	EQUIP_ARMOR_LEG	5	0.075	15.0	30.0
12	EQUIP_ARMOR_LEG	6	0.075	15.0	30.0
12	EQUIP_ARMOR_LEG	7	0.0375	10.0	30.0
12	EQUIP_ARMOR_LEG	8	0.01875	9.0	30.0
12	EQUIP_ARMOR_LEG	9	0.01875	9.0	30.0
12	EQUIP_ARMOR_LEG	10	0.00945	6.0	30.0
12	EQUIP_ARMOR_LEG	11	0.00945	6.0	30.0
12	EQUIP_ARMOR_LEG	12	0.045	33.0	100.0
12	EQUIP_ARMOR_LEG	13	0.045	33.0	100.0
12	EQUIP_ARMOR_LEG	14	0.045	33.0	100.0
